<?xml version="1.0"?>
<gpx xmlns="http://www.topografix.com/GPX/1/1" version="1.1" xmlns:xsi="http://www.w3.org/2001/XMLSchema-instance" xsi:schemaLocation="http://www.topografix.com/GPX/1/1 http://www.topografix.com/GPX/1/1/gpx.xsd">
  <metadata><name>Stolpersteine Berlin Müggelheim [2025-03-10]</name>    <copyright author="Koordinierungsstelle Stolpersteine Berlin"/>
  </metadata>
  <wpt lat="52.412236107289" lon="13.662476369312"><name>Ursula Milke, Alt-Müggelheim 17, https://www.stolpersteine-berlin.de/biografie/4700</name>  </wpt>
  <wpt lat="52.412236107289" lon="13.662476369312"><name>Hertha Milke, Alt-Müggelheim 17, https://www.stolpersteine-berlin.de/biografie/4902</name>  </wpt>
</gpx>