<?xml version="1.0"?>
<gpx xmlns="http://www.topografix.com/GPX/1/1" version="1.1" xmlns:xsi="http://www.w3.org/2001/XMLSchema-instance" xsi:schemaLocation="http://www.topografix.com/GPX/1/1 http://www.topografix.com/GPX/1/1/gpx.xsd">
  <metadata><name>Stolpersteine Berlin Grunewald [2025-03-10]</name>    <copyright author="Koordinierungsstelle Stolpersteine Berlin"/>
  </metadata>
  <wpt lat="52.4942183" lon="13.2861497"><name>Hugo Elkeles, Gillweg 2 a, https://www.stolpersteine-berlin.de/biografie/3669</name>  </wpt>
  <wpt lat="52.4929763" lon="13.2868113"><name>Alfred Rotter, Kunz-Buntschuh-Straße16-18 --&gt; Kunz-Buntschuh-Str. 16 -18, https://www.stolpersteine-berlin.de/biografie/3977</name>  </wpt>
  <wpt lat="52.4929763" lon="13.2868113"><name>Fritz Rotter, Kunz-Buntschuh-Straße16-18 --&gt; Kunz-Buntschuh-Str. 16 -18, https://www.stolpersteine-berlin.de/biografie/3978</name>  </wpt>
  <wpt lat="52.4929763" lon="13.2868113"><name>Gertrud Rotter, Kunz-Buntschuh-Straße16-18 --&gt; Kunz-Buntschuh-Str. 16 -18, https://www.stolpersteine-berlin.de/biografie/3979</name>  </wpt>
  <wpt lat="52.4849367" lon="13.2800086"><name>Clara Hammerstein, Delbrückstraße 17, https://www.stolpersteine-berlin.de/biografie/7549</name>  </wpt>
  <wpt lat="52.4939977" lon="13.2870267"><name>Frieda Fränkel, Gillweg 3 / Hubertusallee, https://www.stolpersteine-berlin.de/biografie/7620</name>  </wpt>
  <wpt lat="52.490025" lon="13.2797756"><name>Jacob Studinski, Lynarstraße 5, https://www.stolpersteine-berlin.de/biografie/9939</name>  </wpt>
  <wpt lat="52.4911219" lon="13.2710992"><name>Blanca Nehab, Trabener Straße 45, https://www.stolpersteine-berlin.de/biografie/10803</name>  </wpt>
  <wpt lat="52.4911219" lon="13.2710992"><name>Elisabeth Nehab, Trabener Straße 45, https://www.stolpersteine-berlin.de/biografie/10804</name>  </wpt>
  <wpt lat="52.4911219" lon="13.2710992"><name>Martha Nehab, Trabener Straße 45, https://www.stolpersteine-berlin.de/biografie/10805</name>  </wpt>
</gpx>