<?xml version="1.0"?>
<gpx xmlns="http://www.topografix.com/GPX/1/1" version="1.1" xmlns:xsi="http://www.w3.org/2001/XMLSchema-instance" xsi:schemaLocation="http://www.topografix.com/GPX/1/1 http://www.topografix.com/GPX/1/1/gpx.xsd">
  <metadata><name>Stolpersteine Berlin Mahlsdorf [2025-03-10]</name>    <copyright author="Koordinierungsstelle Stolpersteine Berlin"/>
  </metadata>
  <wpt lat="52.5120673" lon="13.6039803"><name>Heinrich Lange, Lohengrinstraße 2, https://www.stolpersteine-berlin.de/biografie/1792</name>  </wpt>
  <wpt lat="52.5120673" lon="13.6039803"><name>Max Lange, Lohengrinstraße 2, https://www.stolpersteine-berlin.de/biografie/1793</name>  </wpt>
  <wpt lat="52.5120673" lon="13.6039803"><name>Rosa Lange, Lohengrinstraße 2, https://www.stolpersteine-berlin.de/biografie/1794</name>  </wpt>
  <wpt lat="52.5120673" lon="13.6039803"><name>Denny Lange, Lohengrinstraße 2, https://www.stolpersteine-berlin.de/biografie/1795</name>  </wpt>
  <wpt lat="52.5120673" lon="13.6039803"><name>Salo Lange, Lohengrinstraße 2, https://www.stolpersteine-berlin.de/biografie/1796</name>  </wpt>
  <wpt lat="52.5120673" lon="13.6039803"><name>Manfred Lichtenstein, Lohengrinstraße 2, https://www.stolpersteine-berlin.de/biografie/1797</name>  </wpt>
  <wpt lat="52.492" lon="13.60569"><name>Walter Reissner, Eichenhofweg 9, https://www.stolpersteine-berlin.de/biografie/1798</name>  </wpt>
  <wpt lat="52.522138641395" lon="13.632317253442"><name>Berthold Guthmann, Lemkestraße 156, https://www.stolpersteine-berlin.de/biografie/5239</name>  </wpt>
  <wpt lat="52.522138641395" lon="13.632317253442"><name>Charlotte Guthmann, Lemkestraße 156, https://www.stolpersteine-berlin.de/biografie/5240</name>  </wpt>
  <wpt lat="52.522138641395" lon="13.632317253442"><name>Eva Guthmann, Lemkestraße 156, https://www.stolpersteine-berlin.de/biografie/5241</name>  </wpt>
  <wpt lat="52.522138641395" lon="13.632317253442"><name>Hans Guthmann, Lemkestraße 156, https://www.stolpersteine-berlin.de/biografie/5242</name>  </wpt>
  <wpt lat="52.522138641395" lon="13.632317253442"><name>Maria Guthmann, Lemkestraße 156, https://www.stolpersteine-berlin.de/biografie/5243</name>  </wpt>
  <wpt lat="52.522138641395" lon="13.632317253442"><name>Otto Guthmann, Lemkestraße 156, https://www.stolpersteine-berlin.de/biografie/5244</name>  </wpt>
  <wpt lat="52.522138641395" lon="13.632317253442"><name>Leopold Guthmann, Lemkestraße 156, https://www.stolpersteine-berlin.de/biografie/5245</name>  </wpt>
  <wpt lat="52.4810074" lon="13.5966776"><name>Heymann Saloschin, Bergedorfer Straße 187, https://www.stolpersteine-berlin.de/biografie/7648</name>  </wpt>
  <wpt lat="52.5239157" lon="13.6206598"><name>Alexander Scheucher, Hönower Staße 213, https://www.stolpersteine-berlin.de/biografie/8615</name>  </wpt>
  <wpt lat="52.4793283" lon="13.6026718"><name>Alice Herz, Akazienallee 4, https://www.stolpersteine-berlin.de/biografie/10745</name>  </wpt>
  <wpt lat="52.4793283" lon="13.6026718"><name>Helga Herz, Akazienallee 4, https://www.stolpersteine-berlin.de/biografie/10746</name>  </wpt>
  <wpt lat="52.4809802" lon="13.5892583"><name>Charlotte Przybilla, Wielandstraße 20, https://www.stolpersteine-berlin.de/biografie/10747</name>  </wpt>
  <wpt lat="52.4809802" lon="13.5892583"><name>Johann Przybilla, Wielandstraße 20, https://www.stolpersteine-berlin.de/biografie/10748</name>  </wpt>
</gpx>