<?xml version="1.0"?>
<gpx xmlns="http://www.topografix.com/GPX/1/1" version="1.1" xmlns:xsi="http://www.w3.org/2001/XMLSchema-instance" xsi:schemaLocation="http://www.topografix.com/GPX/1/1 http://www.topografix.com/GPX/1/1/gpx.xsd">
  <metadata><name>Stolpersteine Berlin Friedrichshain [2025-03-10]</name>    <copyright author="Koordinierungsstelle Stolpersteine Berlin"/>
  </metadata>
  <wpt lat="52.518211871129" lon="13.433325191788"><name>Arnold Levy, Lebuser Straße/ Karl-Marx-Allee, https://www.stolpersteine-berlin.de/biografie/385</name>  </wpt>
  <wpt lat="52.50990642741" lon="13.433997460327"><name>Martha Obrig, Am Ostbahnhof, https://www.stolpersteine-berlin.de/biografie/1815</name>  </wpt>
  <wpt lat="52.514433085199" lon="13.431820822754"><name>Adolf Wilczig, Andreasstraße 25, https://www.stolpersteine-berlin.de/biografie/1816</name>  </wpt>
  <wpt lat="52.51654" lon="13.4329"><name>Hirsch Abramowicz, Andreasstraße 34, https://www.stolpersteine-berlin.de/biografie/1817</name>  </wpt>
  <wpt lat="52.51654" lon="13.4329"><name>Golde Abramowicz, Andreasstraße 34, https://www.stolpersteine-berlin.de/biografie/1818</name>  </wpt>
  <wpt lat="52.50239" lon="13.4526"><name>Hugo Germer, Lehmbruckstraße 20, https://www.stolpersteine-berlin.de/biografie/1833</name>  </wpt>
  <wpt lat="52.5125601" lon="13.4583672"><name>Else Lehnhardt, Boxhagener Straße 27, https://www.stolpersteine-berlin.de/biografie/1843</name>  </wpt>
  <wpt lat="52.51976" lon="13.46281"><name>Adolf Brauer, Dolziger Straße 1, https://www.stolpersteine-berlin.de/biografie/1861</name>  </wpt>
  <wpt lat="52.51976" lon="13.46281"><name>Rosa Brauer, Dolziger Straße 1, https://www.stolpersteine-berlin.de/biografie/1862</name>  </wpt>
  <wpt lat="52.51536" lon="13.46193"><name>Alexander Adam, Frankfurter Allee 35 /37, https://www.stolpersteine-berlin.de/biografie/1883</name>  </wpt>
  <wpt lat="52.51536" lon="13.46193"><name>Hertha Adam, Frankfurter Allee 35 /37, https://www.stolpersteine-berlin.de/biografie/1884</name>  </wpt>
  <wpt lat="52.515801627236" lon="13.440300371056"><name>Emma Bukofzer, Straße der Pariser Kommune, https://www.stolpersteine-berlin.de/biografie/1890</name>  </wpt>
  <wpt lat="52.515801627236" lon="13.440300371056"><name>Rosalie Bukofzer, Straße der Pariser Kommune, https://www.stolpersteine-berlin.de/biografie/1891</name>  </wpt>
  <wpt lat="52.5127029" lon="13.4370005"><name>Anna Korngold, Straße der Pariser Kommune 40, https://www.stolpersteine-berlin.de/biografie/1892</name>  </wpt>
  <wpt lat="52.5169731" lon="13.4398538"><name>Gertrud Köpke, Karl-Marx-Allee 90, https://www.stolpersteine-berlin.de/biografie/1893</name>  </wpt>
  <wpt lat="52.51201" lon="13.43691"><name>Max Jacob, Straße der Pariser Kommune 13, https://www.stolpersteine-berlin.de/biografie/1894</name>  </wpt>
  <wpt lat="52.51599889989" lon="13.463606100005"><name>Edith Wolff, Silvio-Meier-Straße 6, https://www.stolpersteine-berlin.de/biografie/1895</name>  </wpt>
  <wpt lat="52.51599889989" lon="13.463606100005"><name>Tina Wolff, Silvio-Meier-Straße 6, https://www.stolpersteine-berlin.de/biografie/1896</name>  </wpt>
  <wpt lat="52.518349445095" lon="13.427477080951"><name>Lucie Konzack, Strausberger Platz, https://www.stolpersteine-berlin.de/biografie/1920</name>  </wpt>
  <wpt lat="52.5167306" lon="13.4366057"><name>Heinrich Keller, Koppenstraße 31, https://www.stolpersteine-berlin.de/biografie/1943</name>  </wpt>
  <wpt lat="52.51347" lon="13.42712"><name>Karl Jacobs, Krautstraße 29, https://www.stolpersteine-berlin.de/biografie/1946</name>  </wpt>
  <wpt lat="52.52377" lon="13.43968"><name>Willi Lenz, Landsberger Allee 42, https://www.stolpersteine-berlin.de/biografie/1953</name>  </wpt>
  <wpt lat="52.52274" lon="13.43207"><name>Werner Anschel, Platz der Vereinten Nationen 4 /5, https://www.stolpersteine-berlin.de/biografie/1954</name>  </wpt>
  <wpt lat="52.52274" lon="13.43207"><name>Max Anschel, Platz der Vereinten Nationen 4 /5, https://www.stolpersteine-berlin.de/biografie/1955</name>  </wpt>
  <wpt lat="52.52274" lon="13.43207"><name>Hulda Anschel, Platz der Vereinten Nationen 4 /5, https://www.stolpersteine-berlin.de/biografie/1956</name>  </wpt>
  <wpt lat="52.5140153" lon="13.4629048"><name>Richard Miersch, Mainzer Straße 23, https://www.stolpersteine-berlin.de/biografie/1963</name>  </wpt>
  <wpt lat="52.52169" lon="13.45387"><name>Ernst Conrad, Matternstraße 9, https://www.stolpersteine-berlin.de/biografie/1976</name>  </wpt>
  <wpt lat="52.51533" lon="13.44292"><name>Debora Pieper, Marchlewskistraße 20, https://www.stolpersteine-berlin.de/biografie/1977</name>  </wpt>
  <wpt lat="52.51426" lon="13.4438"><name>Hermann Ludomer, Marchlewskistraße 28, https://www.stolpersteine-berlin.de/biografie/1978</name>  </wpt>
  <wpt lat="52.51426" lon="13.4438"><name>Sara Ludomer, Marchlewskistraße 28, https://www.stolpersteine-berlin.de/biografie/1979</name>  </wpt>
  <wpt lat="52.51426" lon="13.4438"><name>Frieda Schacher, Marchlewskistraße 28, https://www.stolpersteine-berlin.de/biografie/1980</name>  </wpt>
  <wpt lat="52.5138033" lon="13.444594"><name>Johanna Abraham, Marchlewskistraße 38 /40, https://www.stolpersteine-berlin.de/biografie/1981</name>  </wpt>
  <wpt lat="52.5089425" lon="13.4482233"><name>Erich Dickhoff, Marchlewskistraße 100, https://www.stolpersteine-berlin.de/biografie/1982</name>  </wpt>
  <wpt lat="52.5089425" lon="13.4482233"><name>Rosa Dickhoff, Marchlewskistraße 100, https://www.stolpersteine-berlin.de/biografie/1983</name>  </wpt>
  <wpt lat="52.5094209" lon="13.4727211"><name>Dorothea Fonden, Oderstraße 34, https://www.stolpersteine-berlin.de/biografie/2002</name>  </wpt>
  <wpt lat="52.5165876" lon="13.4634288"><name>Georg Hoenich, Rigaer Straße 30, https://www.stolpersteine-berlin.de/biografie/2082</name>  </wpt>
  <wpt lat="52.5165876" lon="13.4634288"><name>Ruth Hoenich, Rigaer Straße 30, https://www.stolpersteine-berlin.de/biografie/2083</name>  </wpt>
  <wpt lat="52.5153047" lon="13.4716272"><name>Fritz Baecker, Rigaer Straße 57, https://www.stolpersteine-berlin.de/biografie/2084</name>  </wpt>
  <wpt lat="52.5153047" lon="13.4716272"><name>Alice Baecker, Rigaer Straße 57, https://www.stolpersteine-berlin.de/biografie/2085</name>  </wpt>
  <wpt lat="52.5003" lon="13.45789"><name>Kurt Gritsch, Rochowstraße 13 A, https://www.stolpersteine-berlin.de/biografie/2094</name>  </wpt>
  <wpt lat="52.5151632" lon="13.4647043"><name>Abraham Rosenfeld, Samariterstraße 1, https://www.stolpersteine-berlin.de/biografie/2098</name>  </wpt>
  <wpt lat="52.5151632" lon="13.4647043"><name>Cäcilie Rosenfeld, Samariterstraße 1, https://www.stolpersteine-berlin.de/biografie/2099</name>  </wpt>
  <wpt lat="52.5177285" lon="13.4656215"><name>Johanna Lichtenstein, Samariterstraße 29, https://www.stolpersteine-berlin.de/biografie/2100</name>  </wpt>
  <wpt lat="52.5" lon="13.4584"><name>Paul Schiller, Stralauer Allee 24, https://www.stolpersteine-berlin.de/biografie/2137</name>  </wpt>
  <wpt lat="52.52117" lon="13.43182"><name>Wally Guthmann, Strausberger Straße 39, https://www.stolpersteine-berlin.de/biografie/2138</name>  </wpt>
  <wpt lat="52.52117" lon="13.43182"><name>Günther Baer, Strausberger Straße 39, https://www.stolpersteine-berlin.de/biografie/2139</name>  </wpt>
  <wpt lat="52.52117" lon="13.43182"><name>Richard Baer, Strausberger Straße 39, https://www.stolpersteine-berlin.de/biografie/2140</name>  </wpt>
  <wpt lat="52.52117" lon="13.43182"><name>Franziska Baer, Strausberger Straße 39, https://www.stolpersteine-berlin.de/biografie/2141</name>  </wpt>
  <wpt lat="52.52117" lon="13.43182"><name>Edith Hirsch, Strausberger Straße 39, https://www.stolpersteine-berlin.de/biografie/2142</name>  </wpt>
  <wpt lat="52.52117" lon="13.43182"><name>Walter Loewenthal, Strausberger Straße 39, https://www.stolpersteine-berlin.de/biografie/2143</name>  </wpt>
  <wpt lat="52.52117" lon="13.43182"><name>Heinz Loewenthal, Strausberger Straße 39, https://www.stolpersteine-berlin.de/biografie/2144</name>  </wpt>
  <wpt lat="52.52117" lon="13.43182"><name>Willy Loewenthal, Strausberger Straße 39, https://www.stolpersteine-berlin.de/biografie/2145</name>  </wpt>
  <wpt lat="52.52117" lon="13.43182"><name>Elfriede Loewenthal, Strausberger Straße 39, https://www.stolpersteine-berlin.de/biografie/2146</name>  </wpt>
  <wpt lat="52.52117" lon="13.43182"><name>Aron Rosenthal, Strausberger Straße 39, https://www.stolpersteine-berlin.de/biografie/2147</name>  </wpt>
  <wpt lat="52.52117" lon="13.43182"><name>Rosa Rosenthal, Strausberger Straße 39, https://www.stolpersteine-berlin.de/biografie/2148</name>  </wpt>
  <wpt lat="52.52117" lon="13.43182"><name>Jakob Leib Tugendhaft, Strausberger Straße 39, https://www.stolpersteine-berlin.de/biografie/2149</name>  </wpt>
  <wpt lat="52.52117" lon="13.43182"><name>Giesela Tugendhaft, Strausberger Straße 39, https://www.stolpersteine-berlin.de/biografie/2150</name>  </wpt>
  <wpt lat="52.52117" lon="13.43182"><name>Gerda Tugendhaft, Strausberger Straße 39, https://www.stolpersteine-berlin.de/biografie/2151</name>  </wpt>
  <wpt lat="52.52117" lon="13.43182"><name>Alice Tugendhaft, Strausberger Straße 39, https://www.stolpersteine-berlin.de/biografie/2152</name>  </wpt>
  <wpt lat="52.52192" lon="13.44588"><name>Eugen Neutert, Richard-Sorge-Straße 65, https://www.stolpersteine-berlin.de/biografie/2154</name>  </wpt>
  <wpt lat="52.51317" lon="13.45218"><name>Eva Leder, Warschauer Straße 12, https://www.stolpersteine-berlin.de/biografie/2173</name>  </wpt>
  <wpt lat="52.51317" lon="13.45218"><name>Salomon Leder, Warschauer Straße 12, https://www.stolpersteine-berlin.de/biografie/2174</name>  </wpt>
  <wpt lat="52.51317" lon="13.45218"><name>Betty Leder, Warschauer Straße 12, https://www.stolpersteine-berlin.de/biografie/2175</name>  </wpt>
  <wpt lat="52.51317" lon="13.45218"><name>Gisela Leder, Warschauer Straße 12, https://www.stolpersteine-berlin.de/biografie/2176</name>  </wpt>
  <wpt lat="52.5180631" lon="13.4517035"><name>Gustav Wegener, Weidenweg 44 / 46, https://www.stolpersteine-berlin.de/biografie/2182</name>  </wpt>
  <wpt lat="52.5180631" lon="13.4517035"><name>Hermann Wegener, Weidenweg 44 / 46, https://www.stolpersteine-berlin.de/biografie/2183</name>  </wpt>
  <wpt lat="52.5203567" lon="13.4522083"><name>Alfred Bornstein, Petersburger Straße 63, https://www.stolpersteine-berlin.de/biografie/2195</name>  </wpt>
  <wpt lat="52.5203567" lon="13.4522083"><name>Helene Bornstein, Petersburger Straße 63, https://www.stolpersteine-berlin.de/biografie/2196</name>  </wpt>
  <wpt lat="52.5203567" lon="13.4522083"><name>Günter Arnold Bornstein, Petersburger Straße 63, https://www.stolpersteine-berlin.de/biografie/2197</name>  </wpt>
  <wpt lat="52.5203567" lon="13.4522083"><name>Joachim Bornstein, Petersburger Straße 63, https://www.stolpersteine-berlin.de/biografie/2198</name>  </wpt>
  <wpt lat="52.5203567" lon="13.4522083"><name>Simon Weis, Petersburger Straße 63, https://www.stolpersteine-berlin.de/biografie/2199</name>  </wpt>
  <wpt lat="52.5203567" lon="13.4522083"><name>Edith Weis, Petersburger Straße 63, https://www.stolpersteine-berlin.de/biografie/2200</name>  </wpt>
  <wpt lat="52.52558" lon="13.4275748"><name>Elisabeth Schmidt, Höchste Straße 14 -16, https://www.stolpersteine-berlin.de/biografie/2202</name>  </wpt>
  <wpt lat="52.52331" lon="13.44574"><name>Julius Blumenthal, Kochhannstraße 1, https://www.stolpersteine-berlin.de/biografie/2208</name>  </wpt>
  <wpt lat="52.52331" lon="13.44574"><name>Betty Blumenthal, Kochhannstraße 1, https://www.stolpersteine-berlin.de/biografie/2209</name>  </wpt>
  <wpt lat="52.5130025" lon="13.4304691"><name>Bernhard Gottschalk, Lange Straße 81, https://www.stolpersteine-berlin.de/biografie/2220</name>  </wpt>
  <wpt lat="52.5129113" lon="13.4315884"><name>Fritz Engel, Lange Straße 79, https://www.stolpersteine-berlin.de/biografie/2229</name>  </wpt>
  <wpt lat="52.52353" lon="13.4279"><name>Kurt Abraham, Platz der Vereinten Nationen 26, https://www.stolpersteine-berlin.de/biografie/2230</name>  </wpt>
  <wpt lat="52.519038277567" lon="13.428939036771"><name>Ruth Tschernigow, Neue Weberstraße 6, https://www.stolpersteine-berlin.de/biografie/2233</name>  </wpt>
  <wpt lat="52.518898391126" lon="13.42898703268"><name>Martha Tschernigow, Strausberger Platz (Nordostseite), https://www.stolpersteine-berlin.de/biografie/2234</name>  </wpt>
  <wpt lat="52.5131809" lon="13.457932"><name>Alice Erb, Niederbarnimstraße 13, https://www.stolpersteine-berlin.de/biografie/2242</name>  </wpt>
  <wpt lat="52.5131809" lon="13.457932"><name>Brigitte Erb, Niederbarnimstraße 13, https://www.stolpersteine-berlin.de/biografie/2243</name>  </wpt>
  <wpt lat="52.5127" lon="13.46669"><name>Ruth Wolffsberg, Scharnweberstraße 46, https://www.stolpersteine-berlin.de/biografie/2245</name>  </wpt>
  <wpt lat="52.523464398561" lon="13.432731102219"><name>Frieda Treu, Friedenstraße, https://www.stolpersteine-berlin.de/biografie/2253</name>  </wpt>
  <wpt lat="52.523464398561" lon="13.432731102219"><name>Max Treu, Friedenstraße, https://www.stolpersteine-berlin.de/biografie/2254</name>  </wpt>
  <wpt lat="52.52089" lon="13.45273"><name>Dorothea Salomon, Mühsamstraße 61, https://www.stolpersteine-berlin.de/biografie/2267</name>  </wpt>
  <wpt lat="52.52089" lon="13.45273"><name>Elias Mendelsohn, Mühsamstraße 61, https://www.stolpersteine-berlin.de/biografie/2268</name>  </wpt>
  <wpt lat="52.5089425" lon="13.4482233"><name>Hanne Casper, Marchlewskistraße 100, https://www.stolpersteine-berlin.de/biografie/2269</name>  </wpt>
  <wpt lat="52.50532984133" lon="13.466693369975"><name>Gertrud Cohn, Sonntagstraße 32, https://www.stolpersteine-berlin.de/biografie/2270</name>  </wpt>
  <wpt lat="52.50446978582" lon="13.467567293393"><name>Alfred Braun, Annemirl-Bauer-Platz (Südostecke), https://www.stolpersteine-berlin.de/biografie/2271</name>  </wpt>
  <wpt lat="52.525398" lon="13.42345070003"><name>Markus Gutmann, Barnimstraße 38, https://www.stolpersteine-berlin.de/biografie/2277</name>  </wpt>
  <wpt lat="52.525398" lon="13.42345070003"><name>Chawa Gutmann, Barnimstraße 38, https://www.stolpersteine-berlin.de/biografie/2278</name>  </wpt>
  <wpt lat="52.52614" lon="13.42286"><name>Levy Gutmann, Barnimstraße 18, https://www.stolpersteine-berlin.de/biografie/2279</name>  </wpt>
  <wpt lat="52.52614" lon="13.42286"><name>Bertha Gutmann, Barnimstraße 18, https://www.stolpersteine-berlin.de/biografie/2280</name>  </wpt>
  <wpt lat="52.4980643" lon="13.4647936"><name>Karl Holzfäller, Markgrafendamm 35, https://www.stolpersteine-berlin.de/biografie/2284</name>  </wpt>
  <wpt lat="52.5002744" lon="13.4665076"><name>Liselotte Ackermann, Markgrafendamm 16, https://www.stolpersteine-berlin.de/biografie/2285</name>  </wpt>
  <wpt lat="52.501659" lon="13.466084"><name>Justine Bischofswerder, Markgrafendamm 25, https://www.stolpersteine-berlin.de/biografie/2286</name>  </wpt>
  <wpt lat="52.4980643" lon="13.4647936"><name>Charlotte Bloch, Markgrafendamm 35, https://www.stolpersteine-berlin.de/biografie/2287</name>  </wpt>
  <wpt lat="52.49863" lon="13.46245"><name>Aurelie Marcuse, Bödikerstraße 35, https://www.stolpersteine-berlin.de/biografie/2293</name>  </wpt>
  <wpt lat="52.498982" lon="13.465095299978"><name>Else Rueggebrecht, Corinthstraße 63, https://www.stolpersteine-berlin.de/biografie/2294</name>  </wpt>
  <wpt lat="52.499413700108" lon="13.463700899992"><name>Albert Steinhardt, Corinthstraße 51, https://www.stolpersteine-berlin.de/biografie/2295</name>  </wpt>
  <wpt lat="52.499413700108" lon="13.463700899992"><name>Horst Steinhardt, Corinthstraße 51, https://www.stolpersteine-berlin.de/biografie/2296</name>  </wpt>
  <wpt lat="52.501631300008" lon="13.454033399967"><name>Dagobert Ziegel, Danneckerstraße 21, https://www.stolpersteine-berlin.de/biografie/2297</name>  </wpt>
  <wpt lat="52.501631300008" lon="13.454033399967"><name>Erna Ziegel, Danneckerstraße 21, https://www.stolpersteine-berlin.de/biografie/2298</name>  </wpt>
  <wpt lat="52.510558204134" lon="13.464891117999"><name>Ignatz Rosthal, Gryphiusstraße, https://www.stolpersteine-berlin.de/biografie/2303</name>  </wpt>
  <wpt lat="52.51921" lon="13.43751"><name>Elise Richter, Koppenstraße 41 / 41 A, https://www.stolpersteine-berlin.de/biografie/2307</name>  </wpt>
  <wpt lat="52.5174788" lon="13.4653642"><name>Nathan Kempe, Schreinerstraße 52 / 52 A, https://www.stolpersteine-berlin.de/biografie/2308</name>  </wpt>
  <wpt lat="52.51444" lon="13.4612103"><name>Fritz Thurm, Kreutzigerstraße 28, https://www.stolpersteine-berlin.de/biografie/2310</name>  </wpt>
  <wpt lat="52.5085833" lon="13.4516095"><name>Otto Oldenburg, Revaler Straße 6, https://www.stolpersteine-berlin.de/biografie/2311</name>  </wpt>
  <wpt lat="52.52653" lon="13.422"><name>Arthur Michelsohn, Otto-Braun-Straße 86 /88, https://www.stolpersteine-berlin.de/biografie/2314</name>  </wpt>
  <wpt lat="52.51463" lon="13.43611"><name>Sally Magner, Singerstraße 66, https://www.stolpersteine-berlin.de/biografie/2325</name>  </wpt>
  <wpt lat="52.51463" lon="13.43611"><name>Erna Magner, Singerstraße 66, https://www.stolpersteine-berlin.de/biografie/2326</name>  </wpt>
  <wpt lat="52.52691" lon="13.42702"><name>Alfred Marcus, Friedenstraße 4, https://www.stolpersteine-berlin.de/biografie/2327</name>  </wpt>
  <wpt lat="52.52691" lon="13.42702"><name>Sophie Marcus, Friedenstraße 4, https://www.stolpersteine-berlin.de/biografie/2328</name>  </wpt>
  <wpt lat="52.5121874" lon="13.4552418"><name>Hans Litten, Grünberger Straße 43, https://www.stolpersteine-berlin.de/biografie/2338</name>  </wpt>
  <wpt lat="52.5121874" lon="13.4552418"><name>Martha Litten, Grünberger Straße 43, https://www.stolpersteine-berlin.de/biografie/2339</name>  </wpt>
  <wpt lat="52.514005" lon="13.4282621"><name>Bruno Lewin, Krautstraße 38 A, https://www.stolpersteine-berlin.de/biografie/2347</name>  </wpt>
  <wpt lat="52.5173652" lon="13.4311487"><name>Max Marcus Tschernigow, Blumenstraße 47 -49, https://www.stolpersteine-berlin.de/biografie/2349</name>  </wpt>
  <wpt lat="52.5202647" lon="13.4471831"><name>Ella Schwarz, Richard-Sorge-Straße 73, https://www.stolpersteine-berlin.de/biografie/2350</name>  </wpt>
  <wpt lat="52.5202647" lon="13.4471831"><name>Max Schwarz, Richard-Sorge-Straße 73, https://www.stolpersteine-berlin.de/biografie/2351</name>  </wpt>
  <wpt lat="52.5202647" lon="13.4471831"><name>Margot Friedländer, Richard-Sorge-Straße 73, https://www.stolpersteine-berlin.de/biografie/2352</name>  </wpt>
  <wpt lat="52.51424" lon="13.42951"><name>Arthur Schwarzer, Kleine Andreasstraße 8 /9, https://www.stolpersteine-berlin.de/biografie/2353</name>  </wpt>
  <wpt lat="52.51424" lon="13.42951"><name>Gertrud Schwarzer, Kleine Andreasstraße 8 /9, https://www.stolpersteine-berlin.de/biografie/2354</name>  </wpt>
  <wpt lat="52.51424" lon="13.42951"><name>Harry Schwarzer, Kleine Andreasstraße 8 /9, https://www.stolpersteine-berlin.de/biografie/2355</name>  </wpt>
  <wpt lat="52.5130151" lon="13.4485309"><name>Willi Klüsener, Grünberger Straße 6, https://www.stolpersteine-berlin.de/biografie/2358</name>  </wpt>
  <wpt lat="52.52747" lon="13.42339"><name>Samuel Nussdorf, Otto-Braun-Straße 90, https://www.stolpersteine-berlin.de/biografie/2360</name>  </wpt>
  <wpt lat="52.52747" lon="13.42339"><name>Frieda Nussdorf, Otto-Braun-Straße 90, https://www.stolpersteine-berlin.de/biografie/2361</name>  </wpt>
  <wpt lat="52.512689" lon="13.4511001"><name>Hedwig Lewin, Grünberger Straße 19, https://www.stolpersteine-berlin.de/biografie/2371</name>  </wpt>
  <wpt lat="52.51517" lon="13.46332"><name>Ludwig Kain, Frankfurter Allee 43, https://www.stolpersteine-berlin.de/biografie/2372</name>  </wpt>
  <wpt lat="52.51517" lon="13.46332"><name>Alexander Kain, Frankfurter Allee 43, https://www.stolpersteine-berlin.de/biografie/2373</name>  </wpt>
  <wpt lat="52.5262746" lon="13.4278245"><name>Adolf Lemmlein, Friedenstraße 8, https://www.stolpersteine-berlin.de/biografie/2379</name>  </wpt>
  <wpt lat="52.5262746" lon="13.4278245"><name>Bela Lemmlein, Friedenstraße 8, https://www.stolpersteine-berlin.de/biografie/2380</name>  </wpt>
  <wpt lat="52.5262746" lon="13.4278245"><name>Edith Lemmlein, Friedenstraße 8, https://www.stolpersteine-berlin.de/biografie/2381</name>  </wpt>
  <wpt lat="52.5161182" lon="13.456653"><name>Regina Feiga Krips, Frankfurter Allee 9, https://www.stolpersteine-berlin.de/biografie/2384</name>  </wpt>
  <wpt lat="52.5199834" lon="13.4507444"><name>Meyer Katz, Mühsamstraße 48 -52, https://www.stolpersteine-berlin.de/biografie/2386</name>  </wpt>
  <wpt lat="52.5199834" lon="13.4507444"><name>Rosa Katz, Mühsamstraße 48 -52, https://www.stolpersteine-berlin.de/biografie/2387</name>  </wpt>
  <wpt lat="52.5131607" lon="13.4596583"><name>Adolf Münzer, Kreutzigerstraße 13, https://www.stolpersteine-berlin.de/biografie/2388</name>  </wpt>
  <wpt lat="52.5131607" lon="13.4596583"><name>Flora Münzer, Kreutzigerstraße 13, https://www.stolpersteine-berlin.de/biografie/2389</name>  </wpt>
  <wpt lat="52.5255001" lon="13.4287986"><name>Josef Cyzner, Büschingstraße 2, https://www.stolpersteine-berlin.de/biografie/3476</name>  </wpt>
  <wpt lat="52.5136128" lon="13.4738416"><name>Bertha Badt, Frankfurter Allee 104, https://www.stolpersteine-berlin.de/biografie/3478</name>  </wpt>
  <wpt lat="52.5136128" lon="13.4738416"><name>Max Badt, Frankfurter Allee 104, https://www.stolpersteine-berlin.de/biografie/3510</name>  </wpt>
  <wpt lat="52.514069" lon="13.4506068"><name>Alfred Renzel, Kadiner Straße 19, https://www.stolpersteine-berlin.de/biografie/3515</name>  </wpt>
  <wpt lat="52.5137331" lon="13.4604719"><name>Ernst Ursell, Kreutzigerstraße 23, https://www.stolpersteine-berlin.de/biografie/3516</name>  </wpt>
  <wpt lat="52.52146" lon="13.45298"><name>Ludwig Fass, Matternstraße 5, https://www.stolpersteine-berlin.de/biografie/3522</name>  </wpt>
  <wpt lat="52.52146" lon="13.45298"><name>Margarete Gosliner, Matternstraße 5, https://www.stolpersteine-berlin.de/biografie/3523</name>  </wpt>
  <wpt lat="52.52146" lon="13.45298"><name>Ernst Rosenthal, Matternstraße 5, https://www.stolpersteine-berlin.de/biografie/3524</name>  </wpt>
  <wpt lat="52.513984" lon="13.45875"><name>Willi Holzmann, Niederbarnimstraße 7, https://www.stolpersteine-berlin.de/biografie/3525</name>  </wpt>
  <wpt lat="52.513984" lon="13.45875"><name>Elsbeth Prinz, Niederbarnimstraße 7, https://www.stolpersteine-berlin.de/biografie/3526</name>  </wpt>
  <wpt lat="52.513984" lon="13.45875"><name>Rita Prinz, Niederbarnimstraße 7, https://www.stolpersteine-berlin.de/biografie/3527</name>  </wpt>
  <wpt lat="52.513984" lon="13.45875"><name>Sara Studinski, Niederbarnimstraße 7, https://www.stolpersteine-berlin.de/biografie/3528</name>  </wpt>
  <wpt lat="52.5221777" lon="13.4462291"><name>Adolf Jacob, Richard-Sorge-Straße 34, https://www.stolpersteine-berlin.de/biografie/3529</name>  </wpt>
  <wpt lat="52.5221777" lon="13.4462291"><name>Jenny Jacob, Richard-Sorge-Straße 34, https://www.stolpersteine-berlin.de/biografie/3530</name>  </wpt>
  <wpt lat="52.5221777" lon="13.4462291"><name>Hedwig Treitel, Richard-Sorge-Straße 34, https://www.stolpersteine-berlin.de/biografie/3531</name>  </wpt>
  <wpt lat="52.5221777" lon="13.4462291"><name>Lippmann Treitel, Richard-Sorge-Straße 34, https://www.stolpersteine-berlin.de/biografie/3532</name>  </wpt>
  <wpt lat="52.5221777" lon="13.4462291"><name>Liese Deworesohn, Richard-Sorge-Straße 34, https://www.stolpersteine-berlin.de/biografie/3533</name>  </wpt>
  <wpt lat="52.5221777" lon="13.4462291"><name>Bertha Deworesohn, Richard-Sorge-Straße 34, https://www.stolpersteine-berlin.de/biografie/3534</name>  </wpt>
  <wpt lat="52.509865" lon="13.451691"><name>Erich Becker, Warschauer Straße 61, https://www.stolpersteine-berlin.de/biografie/3535</name>  </wpt>
  <wpt lat="52.509865" lon="13.451691"><name>Erna Becker, Warschauer Straße 61, https://www.stolpersteine-berlin.de/biografie/3536</name>  </wpt>
  <wpt lat="52.509865" lon="13.451691"><name>Jenny Becker, Warschauer Straße 61, https://www.stolpersteine-berlin.de/biografie/3537</name>  </wpt>
  <wpt lat="52.509865" lon="13.451691"><name>Robert Becker, Warschauer Straße 61, https://www.stolpersteine-berlin.de/biografie/3538</name>  </wpt>
  <wpt lat="52.5221777" lon="13.4462291"><name>Marga Treitel, Richard-Sorge-Straße 34, https://www.stolpersteine-berlin.de/biografie/3539</name>  </wpt>
  <wpt lat="52.525002155513" lon="13.421179839148"><name>Arno Fink, Mollstraße 29 -31, https://www.stolpersteine-berlin.de/biografie/3566</name>  </wpt>
  <wpt lat="52.525002155513" lon="13.421179839148"><name>Edeltraut Fink, Mollstraße 29 -31, https://www.stolpersteine-berlin.de/biografie/3567</name>  </wpt>
  <wpt lat="52.525002155513" lon="13.421179839148"><name>Hermann Fink, Mollstraße 29 -31, https://www.stolpersteine-berlin.de/biografie/3568</name>  </wpt>
  <wpt lat="52.525002155513" lon="13.421179839148"><name>Irmgard Fink, Mollstraße 29 -31, https://www.stolpersteine-berlin.de/biografie/3569</name>  </wpt>
  <wpt lat="52.5229141" lon="13.4483005"><name>Rachel Schmidt, Pintschstraße 18, https://www.stolpersteine-berlin.de/biografie/3573</name>  </wpt>
  <wpt lat="52.5229141" lon="13.4483005"><name>Salomon Schmidt, Pintschstraße 18, https://www.stolpersteine-berlin.de/biografie/3574</name>  </wpt>
  <wpt lat="52.513890256826" lon="13.425423681604"><name>Max Schmidt, Lichtenberger Straße 40, https://www.stolpersteine-berlin.de/biografie/3583</name>  </wpt>
  <wpt lat="52.51808" lon="13.42946"><name>Ernst Schulze, Strausberger Platz 10, https://www.stolpersteine-berlin.de/biografie/3584</name>  </wpt>
  <wpt lat="52.5199215" lon="13.4565242"><name>Gertrud Müller, Hübnerstraße 2, https://www.stolpersteine-berlin.de/biografie/3593</name>  </wpt>
  <wpt lat="52.5199215" lon="13.4565242"><name>Hannchen Müller, Hübnerstraße 2, https://www.stolpersteine-berlin.de/biografie/3594</name>  </wpt>
  <wpt lat="52.5199215" lon="13.4565242"><name>Ruth Stein, Hübnerstraße 2, https://www.stolpersteine-berlin.de/biografie/3595</name>  </wpt>
  <wpt lat="52.5201867" lon="13.4582684"><name>Elfriede Rosen, Liebigstraße 23, https://www.stolpersteine-berlin.de/biografie/4923</name>  </wpt>
  <wpt lat="52.5201867" lon="13.4582684"><name>Heinz Rosen, Liebigstraße 23, https://www.stolpersteine-berlin.de/biografie/4924</name>  </wpt>
  <wpt lat="52.5201867" lon="13.4582684"><name>Lot Rosen, Liebigstraße 23, https://www.stolpersteine-berlin.de/biografie/4925</name>  </wpt>
  <wpt lat="52.5167178" lon="13.4636696"><name>Jenni Bukofzer, Rigaer Straße 80, https://www.stolpersteine-berlin.de/biografie/4926</name>  </wpt>
  <wpt lat="52.5167178" lon="13.4636696"><name>Samuel Bukofzer, Rigaer Straße 80, https://www.stolpersteine-berlin.de/biografie/4999</name>  </wpt>
  <wpt lat="52.5167178" lon="13.4636696"><name>Luise Bendit, Rigaer Straße 80, https://www.stolpersteine-berlin.de/biografie/5000</name>  </wpt>
  <wpt lat="52.5167178" lon="13.4636696"><name>Leo Bendit, Rigaer Straße 80, https://www.stolpersteine-berlin.de/biografie/5001</name>  </wpt>
  <wpt lat="52.5167178" lon="13.4636696"><name>Aron Bendit, Rigaer Straße 80, https://www.stolpersteine-berlin.de/biografie/5002</name>  </wpt>
  <wpt lat="52.52274" lon="13.43207"><name>Berta Nossen, Platz der Vereinten Nationen 4 /5, https://www.stolpersteine-berlin.de/biografie/5067</name>  </wpt>
  <wpt lat="52.523957707873" lon="13.42685682209"><name>Pauline Tietz, Platz der Vereinten Nationen 23, https://www.stolpersteine-berlin.de/biografie/5068</name>  </wpt>
  <wpt lat="52.515856818378" lon="13.468382449074"><name>Alfred Werner, Rigaer Straße 67, https://www.stolpersteine-berlin.de/biografie/5076</name>  </wpt>
  <wpt lat="52.51122458522" lon="13.468210028836"><name>Alex Oschitzki, Oderstraße 9, https://www.stolpersteine-berlin.de/biografie/5081</name>  </wpt>
  <wpt lat="52.51122458522" lon="13.468210028836"><name>Elise Ficius, Oderstraße 9, https://www.stolpersteine-berlin.de/biografie/5087</name>  </wpt>
  <wpt lat="52.524404587237" lon="13.44457953373"><name>Max Lesser, Landsberger Allee 60, https://www.stolpersteine-berlin.de/biografie/5258</name>  </wpt>
  <wpt lat="52.524404587237" lon="13.44457953373"><name>Nelly Lesser, Landsberger Allee 60, https://www.stolpersteine-berlin.de/biografie/5259</name>  </wpt>
  <wpt lat="52.511192553741" lon="13.452354713492"><name>Else Nawroth, Warschauer Straße 67, https://www.stolpersteine-berlin.de/biografie/6872</name>  </wpt>
  <wpt lat="52.526391535736" lon="13.423555216533"><name>Emma Schwarz, Georgenkirchstraße 5, https://www.stolpersteine-berlin.de/biografie/7172</name>  </wpt>
  <wpt lat="52.526391535736" lon="13.423555216533"><name>Reinhard Blond, Georgenkirchstraße 5, https://www.stolpersteine-berlin.de/biografie/7173</name>  </wpt>
  <wpt lat="52.526391535736" lon="13.423555216533"><name>Harry Blond, Georgenkirchstraße 5, https://www.stolpersteine-berlin.de/biografie/7174</name>  </wpt>
  <wpt lat="52.526391535736" lon="13.423555216533"><name>Georg Blond, Georgenkirchstraße 5, https://www.stolpersteine-berlin.de/biografie/7175</name>  </wpt>
  <wpt lat="52.527032690928" lon="13.427049505557"><name>Lupu Solomon, Friedenstraße 3, https://www.stolpersteine-berlin.de/biografie/7176</name>  </wpt>
  <wpt lat="52.527032690928" lon="13.427049505557"><name>Ita Solomon, Friedenstraße 3, https://www.stolpersteine-berlin.de/biografie/7177</name>  </wpt>
  <wpt lat="52.527032690928" lon="13.427049505557"><name>Edith Nehlhans, Friedenstraße 3, https://www.stolpersteine-berlin.de/biografie/7190</name>  </wpt>
  <wpt lat="52.509518984503" lon="13.464449210451"><name>Joel Safirstein, Krossener Straße 35, https://www.stolpersteine-berlin.de/biografie/7461</name>  </wpt>
  <wpt lat="52.509535309218" lon="13.464427752779"><name>Lotte Safirstein, Krossener Straße 35, https://www.stolpersteine-berlin.de/biografie/7462</name>  </wpt>
  <wpt lat="52.509535309218" lon="13.464427752779"><name>Soldi Safirstein, Krossener Straße 35, https://www.stolpersteine-berlin.de/biografie/7482</name>  </wpt>
  <wpt lat="52.509528779333" lon="13.464427752779"><name>Norbert Safirstein, Krossener Straße 35, https://www.stolpersteine-berlin.de/biografie/7483</name>  </wpt>
  <wpt lat="52.515820768423" lon="13.440395674869"><name>Hans Max Nawroth, Straße der Pariser Kommune / Ecke Hildegard-Jadamowitz-Straße, https://www.stolpersteine-berlin.de/biografie/7484</name>  </wpt>
  <wpt lat="52.513392035344" lon="13.473360308598"><name>Paula Poppelauer, Jessnerstraße 3, https://www.stolpersteine-berlin.de/biografie/7485</name>  </wpt>
  <wpt lat="52.513805062975" lon="13.455051179762"><name>Simon Ingwer, Boxhagener Straße 119, https://www.stolpersteine-berlin.de/biografie/7671</name>  </wpt>
  <wpt lat="52.513805062975" lon="13.455051179762"><name>Rosa Ingwer, Boxhagener Straße 119, https://www.stolpersteine-berlin.de/biografie/7672</name>  </wpt>
  <wpt lat="52.513805062975" lon="13.455051179762"><name>Günter Ingwer, Boxhagener Straße 119, https://www.stolpersteine-berlin.de/biografie/7673</name>  </wpt>
  <wpt lat="52.513805062975" lon="13.455051179762"><name>Kurt Ingwer, Boxhagener Straße 119, https://www.stolpersteine-berlin.de/biografie/7674</name>  </wpt>
  <wpt lat="52.512767964681" lon="13.45022174418"><name>Adolf Münzer, Grünberger Straße 20, https://www.stolpersteine-berlin.de/biografie/7687</name>  </wpt>
  <wpt lat="52.516906887139" lon="13.432480203705"><name>Josef Baendel, Andreasstraße 47, https://www.stolpersteine-berlin.de/biografie/7920</name>  </wpt>
  <wpt lat="52.516925353341" lon="13.432474839287"><name>Zierel Baendel, Andreasstraße 47, https://www.stolpersteine-berlin.de/biografie/7921</name>  </wpt>
  <wpt lat="52.516902270587" lon="13.43246679266"><name>Siegfried Martin Baendel, Andreasstraße 47, https://www.stolpersteine-berlin.de/biografie/7922</name>  </wpt>
  <wpt lat="52.512728633113" lon="13.458541464418"><name>Leo Salomon, Boxhagener Straße 28, https://www.stolpersteine-berlin.de/biografie/7924</name>  </wpt>
  <wpt lat="52.512719399131" lon="13.458541464418"><name>Käthe Salomon, Boxhagener Straße 28, https://www.stolpersteine-berlin.de/biografie/7925</name>  </wpt>
  <wpt lat="52.519002347001" lon="13.459765825795"><name>Berthold Jacoby, Zellestraße 9 a-10, https://www.stolpersteine-berlin.de/biografie/7926</name>  </wpt>
  <wpt lat="52.519006963332" lon="13.459776554631"><name>Dora Jacoby, Zellestraße 9 a-10, https://www.stolpersteine-berlin.de/biografie/7927</name>  </wpt>
  <wpt lat="52.512325778615" lon="13.442772980426"><name>Paul Loewenthal, Rüdersdorfer Straße 45, https://www.stolpersteine-berlin.de/biografie/8038</name>  </wpt>
  <wpt lat="52.512311927515" lon="13.442751522754"><name>Irmgard Loewenthal, Rüdersdorfer Straße 45, https://www.stolpersteine-berlin.de/biografie/8039</name>  </wpt>
  <wpt lat="52.526010763535" lon="13.42283317791"><name>Siegfried Loewinski, Barnimstraße 18, https://www.stolpersteine-berlin.de/biografie/8050</name>  </wpt>
  <wpt lat="52.52600614794" lon="13.42283317791"><name>Heinz Loewinski, Barnimstraße 18, https://www.stolpersteine-berlin.de/biografie/8052</name>  </wpt>
  <wpt lat="52.515437482217" lon="13.454321304893"><name>Isidor David Joseph, Frankfurter Tor 6 /7, https://www.stolpersteine-berlin.de/biografie/8053</name>  </wpt>
  <wpt lat="52.515428248804" lon="13.454326669312"><name>Sara Joseph, Frankfurter Tor 6 /7, https://www.stolpersteine-berlin.de/biografie/8054</name>  </wpt>
  <wpt lat="52.515432865511" lon="13.454321304893"><name>Meinhard Joseph, Frankfurter Tor 6 /7, https://www.stolpersteine-berlin.de/biografie/8055</name>  </wpt>
  <wpt lat="52.515432865511" lon="13.454321304893"><name>Erna Israelski, Frankfurter Tor 6 /7, https://www.stolpersteine-berlin.de/biografie/8056</name>  </wpt>
  <wpt lat="52.515597899875" lon="13.450021298148"><name>Rosa Rothholz, Lasdehner Straße / Ecke Hildegard-Jadamowitz-Straße, https://www.stolpersteine-berlin.de/biografie/8359</name>  </wpt>
  <wpt lat="52.515088831784" lon="13.462591771164"><name>Herbert Mendel, Frankfurter Allee 41, https://www.stolpersteine-berlin.de/biografie/8360</name>  </wpt>
  <wpt lat="52.515093448526" lon="13.4626025"><name>Ilse Mendel, Frankfurter Allee 41, https://www.stolpersteine-berlin.de/biografie/8361</name>  </wpt>
  <wpt lat="52.520468496068" lon="13.447186296959"><name>Alice Scheidemann, Richard-Sorge-Straße 73, https://www.stolpersteine-berlin.de/biografie/8576</name>  </wpt>
  <wpt lat="52.51684480348" lon="13.441653101852"><name>Elisabeth Jarosch, Karl-Marx Allee 94, https://www.stolpersteine-berlin.de/biografie/8577</name>  </wpt>
  <wpt lat="52.5215318" lon="13.4528319"><name>Hermann Gosliner, Matternstraße 5, https://www.stolpersteine-berlin.de/biografie/8715</name>  </wpt>
  <wpt lat="52.5166885" lon="13.454908"><name>Max Jacobsohn, Frankfurter Tor 4, https://www.stolpersteine-berlin.de/biografie/8716</name>  </wpt>
  <wpt lat="52.5166885" lon="13.454908"><name>Johanna Jacobsohn, Frankfurter Tor 4, https://www.stolpersteine-berlin.de/biografie/8717</name>  </wpt>
  <wpt lat="52.5166885" lon="13.454908"><name>Adele Jacobsohn, Frankfurter Tor 4, https://www.stolpersteine-berlin.de/biografie/8718</name>  </wpt>
  <wpt lat="52.516886978551" lon="13.461130583992"><name>Arendt Reissmann, Proskauer Straße 8 a, https://www.stolpersteine-berlin.de/biografie/8730</name>  </wpt>
  <wpt lat="52.51667" lon="13.46149"><name>Jenny Reissmann, Proskauer Straße 8 a, https://www.stolpersteine-berlin.de/biografie/8743</name>  </wpt>
  <wpt lat="52.5167887" lon="13.4675875"><name>Fritz Erich Kleczewski, Schreinerstraße 20, https://www.stolpersteine-berlin.de/biografie/8863</name>  </wpt>
  <wpt lat="52.5192589" lon="13.4269411"><name>Kurt Donn, Strausberger Platz 1, https://www.stolpersteine-berlin.de/biografie/8933</name>  </wpt>
  <wpt lat="52.514801478414" lon="13.451804146033"><name>Harry Petrikowski, Hildegard-Jadamowitz-Straße 23, https://www.stolpersteine-berlin.de/biografie/8962</name>  </wpt>
  <wpt lat="52.514801478414" lon="13.451804146033"><name>Ilona Petrikowski, Hildegard-Jadamowitzstraße 23, https://www.stolpersteine-berlin.de/biografie/8963</name>  </wpt>
  <wpt lat="52.514801478414" lon="13.451804146033"><name>Jacob Petrikowski, Hildegard-Jadamowitzstraße 23, https://www.stolpersteine-berlin.de/biografie/8964</name>  </wpt>
  <wpt lat="52.5208516" lon="13.4538829"><name>Adolf Kessel, Mühsamstraße 70, https://www.stolpersteine-berlin.de/biografie/8991</name>  </wpt>
  <wpt lat="52.5208516" lon="13.4538829"><name>Paul Kessel, Mühsamstraße 70, https://www.stolpersteine-berlin.de/biografie/8992</name>  </wpt>
  <wpt lat="52.5208516" lon="13.4538829"><name>Erna Kessel, Mühsamstraße 70, https://www.stolpersteine-berlin.de/biografie/8993</name>  </wpt>
  <wpt lat="52.5142908" lon="13.4445311"><name>Isfried Schön, Marchlewskistraße 33, https://www.stolpersteine-berlin.de/biografie/8995</name>  </wpt>
  <wpt lat="52.5146162" lon="13.4715008"><name>Berek Dembina, Waldeyerstraße 1 a, https://www.stolpersteine-berlin.de/biografie/8996</name>  </wpt>
  <wpt lat="52.5146162" lon="13.4715008"><name>Margarete Reszka, Waldeyerstraße 1 a, https://www.stolpersteine-berlin.de/biografie/8997</name>  </wpt>
  <wpt lat="52.5146162" lon="13.4715008"><name>Ruben Reszka, Waldeyerstraße 1 a, https://www.stolpersteine-berlin.de/biografie/9000</name>  </wpt>
  <wpt lat="52.5148611" lon="13.4541723"><name>Meta Bibo, Warschauer Straße 85, https://www.stolpersteine-berlin.de/biografie/9001</name>  </wpt>
  <wpt lat="52.5148611" lon="13.4541723"><name>Elsa Bibo, Warschauer Straße 85, https://www.stolpersteine-berlin.de/biografie/9002</name>  </wpt>
  <wpt lat="52.517358" lon="13.466029"><name>Louis Behrendt, Schreinerstraße 51, https://www.stolpersteine-berlin.de/biografie/9006</name>  </wpt>
  <wpt lat="52.517358" lon="13.466029"><name>Hans Behrendt, Schreinerstraße 51, https://www.stolpersteine-berlin.de/biografie/9046</name>  </wpt>
  <wpt lat="52.5216468" lon="13.4458725"><name>Georg Brück, Richard-Sorge-Straße 67, https://www.stolpersteine-berlin.de/biografie/9047</name>  </wpt>
  <wpt lat="52.5216468" lon="13.4458725"><name>Gerhard Nathan Brück, Richard-Sorge-Straße 67, https://www.stolpersteine-berlin.de/biografie/9048</name>  </wpt>
  <wpt lat="52.5260984" lon="13.4229431"><name>Ilse Loewinski, Barnimstraße 18, https://www.stolpersteine-berlin.de/biografie/9049</name>  </wpt>
  <wpt lat="52.5260984" lon="13.4229431"><name>Berl Loewinski, Barnimstraße 18, https://www.stolpersteine-berlin.de/biografie/9050</name>  </wpt>
  <wpt lat="52.5186125" lon="13.4307701"><name>Elias Feuerstein, Neue Weberstraße (Rückseite Karl-Marx-Allee 57 ), https://www.stolpersteine-berlin.de/biografie/9051</name>  </wpt>
  <wpt lat="52.513552450609" lon="13.434972847221"><name>Paula Kasriel, Koppenstraße 17, https://www.stolpersteine-berlin.de/biografie/9052</name>  </wpt>
  <wpt lat="52.5186125" lon="13.4307701"><name>Martha Feuerstein, Neue Weberstraße (Rückseite Karl-Marx-Allee 57 ), https://www.stolpersteine-berlin.de/biografie/9058</name>  </wpt>
  <wpt lat="52.513552450609" lon="13.434972847221"><name>Dorothea Kasriel, Koppenstraße 17, https://www.stolpersteine-berlin.de/biografie/9103</name>  </wpt>
  <wpt lat="52.513552450609" lon="13.434972847221"><name>Siegbert Kasriel, Koppenstraße 17, https://www.stolpersteine-berlin.de/biografie/9104</name>  </wpt>
  <wpt lat="52.5126122" lon="13.47047"><name>Alexander Blüger, Weichselstraße 30, https://www.stolpersteine-berlin.de/biografie/9109</name>  </wpt>
  <wpt lat="52.5126122" lon="13.47047"><name>Casimira Blüger, Weichselstraße 30, https://www.stolpersteine-berlin.de/biografie/9110</name>  </wpt>
  <wpt lat="52.5126122" lon="13.47047"><name>Erika Luckner, Weichselstraße 30, https://www.stolpersteine-berlin.de/biografie/9111</name>  </wpt>
  <wpt lat="52.5126122" lon="13.47047"><name>Walter Blüger, Weichselstraße 30, https://www.stolpersteine-berlin.de/biografie/9112</name>  </wpt>
  <wpt lat="52.5260376" lon="13.423517"><name>Heimann Simonsohn, Georgenkirchstraße 10, https://www.stolpersteine-berlin.de/biografie/9113</name>  </wpt>
  <wpt lat="52.5260376" lon="13.423517"><name>Rosa Simonsohn, Georgenkirchstraße 10, https://www.stolpersteine-berlin.de/biografie/9114</name>  </wpt>
  <wpt lat="52.5253491" lon="13.4210933"><name>Max Jakobsberg, Mollstraße 30, https://www.stolpersteine-berlin.de/biografie/9115</name>  </wpt>
  <wpt lat="52.5253491" lon="13.4210933"><name>Magda Jakobsberg, Mollstraße 30, https://www.stolpersteine-berlin.de/biografie/9116</name>  </wpt>
  <wpt lat="52.5253491" lon="13.4210933"><name>Günter Erwin Jakobsberg, Mollstraße 30, https://www.stolpersteine-berlin.de/biografie/9117</name>  </wpt>
  <wpt lat="52.5235238" lon="13.4263041"><name>Benno Simonsohn, Mollstraße 19, https://www.stolpersteine-berlin.de/biografie/9118</name>  </wpt>
  <wpt lat="52.52628" lon="13.42192"><name>Martin Simonsohn, Otto-Braun-Straße 84, https://www.stolpersteine-berlin.de/biografie/9119</name>  </wpt>
  <wpt lat="52.510186846607" lon="13.46445144736"><name>Dagmar Ullrich, Boxhagener Straße 90, https://www.stolpersteine-berlin.de/biografie/9120</name>  </wpt>
  <wpt lat="52.5083191" lon="13.4570985"><name>Regina Rosenfeld, Dirschauer Straße 13, https://www.stolpersteine-berlin.de/biografie/9509</name>  </wpt>
  <wpt lat="52.5083191" lon="13.4570985"><name>Alfred Holdstein, Dirschauer Straße 13, https://www.stolpersteine-berlin.de/biografie/9512</name>  </wpt>
  <wpt lat="52.5083191" lon="13.4570985"><name>Ida Holdstein, Dirschauer Straße 13, https://www.stolpersteine-berlin.de/biografie/9513</name>  </wpt>
  <wpt lat="52.516215" lon="13.465358"><name>Sophie Levy, Samariterstraße 8, https://www.stolpersteine-berlin.de/biografie/9516</name>  </wpt>
  <wpt lat="52.516215" lon="13.465358"><name>Pauline Scholz, Samariterstraße 8, https://www.stolpersteine-berlin.de/biografie/9520</name>  </wpt>
  <wpt lat="52.5238349" lon="13.4315003"><name>Rosalie Hirsch, Platz der Vereinten Nationen 1 / Friedenstraße, https://www.stolpersteine-berlin.de/biografie/9528</name>  </wpt>
  <wpt lat="52.5238349" lon="13.4315003"><name>Edith Baer, Platz der Vereinten Nationen 1 / Friedenstraße, https://www.stolpersteine-berlin.de/biografie/9529</name>  </wpt>
  <wpt lat="52.5165594" lon="13.4681999"><name>Siegfried Falk, Voigtstraße 35, https://www.stolpersteine-berlin.de/biografie/9530</name>  </wpt>
  <wpt lat="52.5165594" lon="13.4681999"><name>Pauline Falk, Voigtstraße 35, https://www.stolpersteine-berlin.de/biografie/9531</name>  </wpt>
  <wpt lat="52.5106783" lon="13.467696"><name>Hannchen Friedenstein, Weichselstraße 17, https://www.stolpersteine-berlin.de/biografie/9532</name>  </wpt>
  <wpt lat="52.5106783" lon="13.467696"><name>Cäcilie Friedenstein, Weichselstraße 17, https://www.stolpersteine-berlin.de/biografie/9533</name>  </wpt>
  <wpt lat="52.523663598202" lon="13.44577527365"><name>Hedwig Lauffer, Kochhannstraße ggü. Nr. 2, https://www.stolpersteine-berlin.de/biografie/9542</name>  </wpt>
  <wpt lat="52.52365898236" lon="13.445786002486"><name>Martha Riepert, Kochhannstraße ggü. Nr. 2, https://www.stolpersteine-berlin.de/biografie/9555</name>  </wpt>
  <wpt lat="52.5167622" lon="13.4678165"><name>Max Jena, Schreinerstraße 21, https://www.stolpersteine-berlin.de/biografie/9560</name>  </wpt>
  <wpt lat="52.5148611" lon="13.4541723"><name>Edgar Joachimsthal, Warschauer Straße 85, https://www.stolpersteine-berlin.de/biografie/9581</name>  </wpt>
  <wpt lat="52.5255156" lon="13.4226798"><name>Martin Panke, Pauline-Staegemann-Straße 1, https://www.stolpersteine-berlin.de/biografie/9587</name>  </wpt>
  <wpt lat="52.5255156" lon="13.4226798"><name>Sophie Panke, Pauline-Staegemann-Straße 1, https://www.stolpersteine-berlin.de/biografie/9588</name>  </wpt>
  <wpt lat="52.5255156" lon="13.4226798"><name>Leo Panke, Pauline-Staegemann-Straße 1, https://www.stolpersteine-berlin.de/biografie/9591</name>  </wpt>
  <wpt lat="52.5255156" lon="13.4226798"><name>Margot Panke, Pauline-Staegemann-Straße 1, https://www.stolpersteine-berlin.de/biografie/9598</name>  </wpt>
  <wpt lat="52.5232836" lon="13.4484011"><name>Lina Günther, Pintschstraße 7, https://www.stolpersteine-berlin.de/biografie/10196</name>  </wpt>
  <wpt lat="52.5232838" lon="13.4478955"><name>Johanna Marnitz, Pintschstraße 15, https://www.stolpersteine-berlin.de/biografie/10197</name>  </wpt>
  <wpt lat="52.5231395" lon="13.4351595"><name>Max Behrendt, Landsberger Allee 8, https://www.stolpersteine-berlin.de/biografie/10327</name>  </wpt>
  <wpt lat="52.5260986" lon="13.422946"><name>Ottilie Reich, Barnimstraße 18, https://www.stolpersteine-berlin.de/biografie/10328</name>  </wpt>
  <wpt lat="52.5260986" lon="13.422946"><name>Michael Scharff, Barnimstraße 18, https://www.stolpersteine-berlin.de/biografie/10329</name>  </wpt>
  <wpt lat="52.5255156" lon="13.4226798"><name>Leonhard Loeffler, Pauline-Staegemann-Straße 1, https://www.stolpersteine-berlin.de/biografie/10433</name>  </wpt>
  <wpt lat="52.5255156" lon="13.4226798"><name>Johanna Loeffler, Pauline-Staegemann-Straße 1, https://www.stolpersteine-berlin.de/biografie/10443</name>  </wpt>
  <wpt lat="52.5255156" lon="13.4226798"><name>Marion Loeffler, Pauline-Staegemann-Straße 1, https://www.stolpersteine-berlin.de/biografie/10444</name>  </wpt>
  <wpt lat="52.5258268" lon="13.4223201"><name>Regina Loschinski, Pauline-Staegemann-Straße 2, https://www.stolpersteine-berlin.de/biografie/10446</name>  </wpt>
  <wpt lat="52.5258268" lon="13.4223201"><name>Paul Loschinski, Pauline-Staegemann-Straße 2, https://www.stolpersteine-berlin.de/biografie/10447</name>  </wpt>
  <wpt lat="52.5258268" lon="13.4223201"><name>Hanna Ruth Thal, Pauline-Staegemann-Straße 2, https://www.stolpersteine-berlin.de/biografie/10450</name>  </wpt>
  <wpt lat="52.5258268" lon="13.4223201"><name>Bruno Thal, Pauline-Staegemann-Straße 2, https://www.stolpersteine-berlin.de/biografie/10472</name>  </wpt>
  <wpt lat="52.5258268" lon="13.4223201"><name>Max Freystadt, Pauline-Staegemann-Straße 2, https://www.stolpersteine-berlin.de/biografie/10476</name>  </wpt>
  <wpt lat="52.5258268" lon="13.4223201"><name>Rosa Freystadt, Pauline-Staegemann-Straße 2, https://www.stolpersteine-berlin.de/biografie/10529</name>  </wpt>
  <wpt lat="52.5212323" lon="13.4294334"><name>Herbert Schwersenz, Platz der Vereinten Nationen / Weydemeyerstraße, https://www.stolpersteine-berlin.de/biografie/10530</name>  </wpt>
  <wpt lat="52.5212323" lon="13.4294334"><name>Rosa Schwersenz, Platz der Vereinten Nationen / Weydemeyerstraße, https://www.stolpersteine-berlin.de/biografie/10531</name>  </wpt>
  <wpt lat="52.5212323" lon="13.4294334"><name>Günther Schwersenz, Platz der Vereinten Nationen / Weydemeyerstraße, https://www.stolpersteine-berlin.de/biografie/10532</name>  </wpt>
  <wpt lat="52.5212323" lon="13.4294334"><name>Eva Kindermann, Platz der Vereinten Nationen / Weydemeyerstraße, https://www.stolpersteine-berlin.de/biografie/10548</name>  </wpt>
  <wpt lat="52.52298994248" lon="13.429446964279"><name>Jacob Coper, Platz der Vereinten Nationen, https://www.stolpersteine-berlin.de/biografie/10555</name>  </wpt>
  <wpt lat="52.5105031" lon="13.4609644"><name>Moritz Rabow, Gärtnerstraße 12, https://www.stolpersteine-berlin.de/biografie/10753</name>  </wpt>
  <wpt lat="52.5105031" lon="13.4609644"><name>Betty Rabow, Gärtnerstraße 12, https://www.stolpersteine-berlin.de/biografie/10775</name>  </wpt>
  <wpt lat="52.5105031" lon="13.4609644"><name>Hulda Salinger, Gärtnerstraße 12, https://www.stolpersteine-berlin.de/biografie/10776</name>  </wpt>
  <wpt lat="52.5260376" lon="13.423517"><name>Lea Ramras, Georgenkirchstraße 10, https://www.stolpersteine-berlin.de/biografie/10782</name>  </wpt>
  <wpt lat="52.5260376" lon="13.423517"><name>Dora Ramras, Georgenkirchstraße 10, https://www.stolpersteine-berlin.de/biografie/10783</name>  </wpt>
  <wpt lat="52.5254347" lon="13.4239727"><name>Samuel Blumenstein, Barnimstraße 12, https://www.stolpersteine-berlin.de/biografie/10809</name>  </wpt>
  <wpt lat="52.5254347" lon="13.4239727"><name>Jenny Blumenstein, Barnimstraße 12, https://www.stolpersteine-berlin.de/biografie/10810</name>  </wpt>
  <wpt lat="52.5207265" lon="13.4461443"><name>Gertrud Peters, Auerstraße 40, https://www.stolpersteine-berlin.de/biografie/10822</name>  </wpt>
  <wpt lat="52.5241139" lon="13.4474865"><name>Jeanette Caro, Kochhannstraße 38, https://www.stolpersteine-berlin.de/biografie/10823</name>  </wpt>
  <wpt lat="52.5241139" lon="13.4474865"><name>Therese Caro, Kochhannstraße 38, https://www.stolpersteine-berlin.de/biografie/10824</name>  </wpt>
  <wpt lat="52.52512" lon="13.4220184"><name>Bruno Striem, Mollstraße 29, https://www.stolpersteine-berlin.de/biografie/10827</name>  </wpt>
  <wpt lat="52.52512" lon="13.4220184"><name>Gertrude Striem, Mollstraße 29, https://www.stolpersteine-berlin.de/biografie/10828</name>  </wpt>
  <wpt lat="52.52512" lon="13.4220184"><name>Herbert Less, Mollstraße 29, https://www.stolpersteine-berlin.de/biografie/10830</name>  </wpt>
  <wpt lat="52.526362" lon="13.4235491"><name>Kurt Schwarz, Georgenkirchstraße 5, https://www.stolpersteine-berlin.de/biografie/10846</name>  </wpt>
  <wpt lat="52.5264435" lon="13.4235963"><name>Julius Preuss, Georgenkirchstraße 4, https://www.stolpersteine-berlin.de/biografie/10851</name>  </wpt>
  <wpt lat="52.51425" lon="13.4527757"><name>Hugo Silberkleid, Warschauer Straße 8, https://www.stolpersteine-berlin.de/biografie/11013</name>  </wpt>
  <wpt lat="52.51425" lon="13.4527757"><name>Gertrud Silberkleid, Warschauer Straße 8, https://www.stolpersteine-berlin.de/biografie/11014</name>  </wpt>
  <wpt lat="52.5127876" lon="13.4732448"><name>Louis Schallamach, Jessnerstraße 11, https://www.stolpersteine-berlin.de/biografie/11015</name>  </wpt>
  <wpt lat="52.5127876" lon="13.4732448"><name>Ida Schallamach, Jessnerstraße 11, https://www.stolpersteine-berlin.de/biografie/11016</name>  </wpt>
  <wpt lat="52.5210434" lon="13.4342966"><name>Kurt Landeck, Friedrichsberger Straße 7, https://www.stolpersteine-berlin.de/biografie/11018</name>  </wpt>
  <wpt lat="52.5210434" lon="13.4342966"><name>Paula Landeck, Friedrichsberger Straße 7, https://www.stolpersteine-berlin.de/biografie/11019</name>  </wpt>
  <wpt lat="52.5210434" lon="13.4342966"><name>Bela Landeck, Friedrichsberger Straße 7, https://www.stolpersteine-berlin.de/biografie/11020</name>  </wpt>
  <wpt lat="52.5207465" lon="13.4537339"><name>Johanne Schäfer, Mühsamstraße 68, https://www.stolpersteine-berlin.de/biografie/11105</name>  </wpt>
  <wpt lat="52.5255926" lon="13.4286698"><name>Selma Cyzner, Büschingstraße 2, https://www.stolpersteine-berlin.de/biografie/11106</name>  </wpt>
</gpx>