<?xml version="1.0"?>
<gpx xmlns="http://www.topografix.com/GPX/1/1" version="1.1" xmlns:xsi="http://www.w3.org/2001/XMLSchema-instance" xsi:schemaLocation="http://www.topografix.com/GPX/1/1 http://www.topografix.com/GPX/1/1/gpx.xsd">
  <metadata><name>Stolpersteine Berlin Wedding [2025-03-10]</name>    <copyright author="Koordinierungsstelle Stolpersteine Berlin"/>
  </metadata>
  <wpt lat="52.55057" lon="13.3675"><name>Julius Barkowsky, Reinickendorfer Straße 77, https://www.stolpersteine-berlin.de/biografie/32</name>  </wpt>
  <wpt lat="52.55057" lon="13.3675"><name>Helene Barkowsky, Reinickendorfer Straße 77, https://www.stolpersteine-berlin.de/biografie/33</name>  </wpt>
  <wpt lat="52.55057" lon="13.3675"><name>Adolf Barkowsky, Reinickendorfer Straße 77, https://www.stolpersteine-berlin.de/biografie/34</name>  </wpt>
  <wpt lat="52.55024" lon="13.36379"><name>Willi Bolien, Maxstraße 12, https://www.stolpersteine-berlin.de/biografie/68</name>  </wpt>
  <wpt lat="52.5419758" lon="13.3551266"><name>Anna Demloff, Sprengelstraße 14, https://www.stolpersteine-berlin.de/biografie/118</name>  </wpt>
  <wpt lat="52.53977" lon="13.35072"><name>Otto Frank, Nordufer 14, https://www.stolpersteine-berlin.de/biografie/150</name>  </wpt>
  <wpt lat="52.54909" lon="13.35674"><name>Sophie Hirsch, Utrechter Straße 10, https://www.stolpersteine-berlin.de/biografie/236</name>  </wpt>
  <wpt lat="52.55175" lon="13.36012"><name>Heinz Hermann Jospe, Liebenwalder Straße 40, https://www.stolpersteine-berlin.de/biografie/298</name>  </wpt>
  <wpt lat="52.55175" lon="13.36012"><name>Henriette Jospe, Liebenwalder Straße 40, https://www.stolpersteine-berlin.de/biografie/299</name>  </wpt>
  <wpt lat="52.55175" lon="13.36012"><name>Awigdor Jospe, Liebenwalder Straße 40, https://www.stolpersteine-berlin.de/biografie/300</name>  </wpt>
  <wpt lat="52.55161" lon="13.3612"><name>Marie Kairies, Liebenwalder Straße 44, https://www.stolpersteine-berlin.de/biografie/309</name>  </wpt>
  <wpt lat="52.54748" lon="13.3583"><name>Regina Korytowski, Müllerstraße 28, https://www.stolpersteine-berlin.de/biografie/340</name>  </wpt>
  <wpt lat="52.5509355" lon="13.3614625"><name>Otto Kroeger, Utrechter Straße 43, https://www.stolpersteine-berlin.de/biografie/352</name>  </wpt>
  <wpt lat="52.552086" lon="13.3629119"><name>Hulda Lehmann, Liebenwalder Straße 16, https://www.stolpersteine-berlin.de/biografie/371</name>  </wpt>
  <wpt lat="52.552086" lon="13.3629119"><name>Gerhard Lehmann, Liebenwalder Straße 16, https://www.stolpersteine-berlin.de/biografie/372</name>  </wpt>
  <wpt lat="52.552086" lon="13.3629119"><name>Martin Lehmann, Liebenwalder Straße 16, https://www.stolpersteine-berlin.de/biografie/373</name>  </wpt>
  <wpt lat="52.552086" lon="13.3629119"><name>Siegbert Lehmann, Liebenwalder Straße 16, https://www.stolpersteine-berlin.de/biografie/374</name>  </wpt>
  <wpt lat="52.547840423096" lon="13.36183536627"><name>Paul Lippmann, Ruheplatzstraße 13, https://www.stolpersteine-berlin.de/biografie/412</name>  </wpt>
  <wpt lat="52.552086" lon="13.3629119"><name>Siegbert Markus, Liebenwalder Straße 16, https://www.stolpersteine-berlin.de/biografie/447</name>  </wpt>
  <wpt lat="52.552086" lon="13.3629119"><name>Johanna Markus, Liebenwalder Straße 16, https://www.stolpersteine-berlin.de/biografie/448</name>  </wpt>
  <wpt lat="52.54748" lon="13.3583"><name>Hilde Meyerstein, Müllerstraße 28, https://www.stolpersteine-berlin.de/biografie/466</name>  </wpt>
  <wpt lat="52.5516301" lon="13.3573514"><name>Heinz Nelson, Amsterdamer Straße 14, https://www.stolpersteine-berlin.de/biografie/484</name>  </wpt>
  <wpt lat="52.5516301" lon="13.3573514"><name>Berta Nelson, Amsterdamer Straße 14, https://www.stolpersteine-berlin.de/biografie/485</name>  </wpt>
  <wpt lat="52.5518387" lon="13.3651694"><name>Martha Neumann, Hochstädter Straße 1, https://www.stolpersteine-berlin.de/biografie/494</name>  </wpt>
  <wpt lat="52.5518387" lon="13.3651694"><name>Max Neumann, Hochstädter Straße 1, https://www.stolpersteine-berlin.de/biografie/495</name>  </wpt>
  <wpt lat="52.55176" lon="13.35967"><name>Kurt Nothenberg, Liebenwalder Straße 38, https://www.stolpersteine-berlin.de/biografie/510</name>  </wpt>
  <wpt lat="52.55176" lon="13.35967"><name>Herbert Nothenberg, Liebenwalder Straße 38, https://www.stolpersteine-berlin.de/biografie/511</name>  </wpt>
  <wpt lat="52.552086" lon="13.3629119"><name>Georg Pless, Liebenwalder Straße 16, https://www.stolpersteine-berlin.de/biografie/527</name>  </wpt>
  <wpt lat="52.552086" lon="13.3629119"><name>Johanna Pless, Liebenwalder Straße 16, https://www.stolpersteine-berlin.de/biografie/528</name>  </wpt>
  <wpt lat="52.55395" lon="13.36193"><name>Hans-Peter Samuel, Groninger Straße 36, https://www.stolpersteine-berlin.de/biografie/587</name>  </wpt>
  <wpt lat="52.55395" lon="13.36193"><name>Günther Samuel, Groninger Straße 36, https://www.stolpersteine-berlin.de/biografie/588</name>  </wpt>
  <wpt lat="52.55395" lon="13.36193"><name>Else Samuel, Groninger Straße 36, https://www.stolpersteine-berlin.de/biografie/589</name>  </wpt>
  <wpt lat="52.5442028" lon="13.3725897"><name>Herbert Schenk, Gerichtstraße 22, https://www.stolpersteine-berlin.de/biografie/600</name>  </wpt>
  <wpt lat="52.5479787" lon="13.3547068"><name>Vera Schwarz, Ostender Straße 2, https://www.stolpersteine-berlin.de/biografie/624</name>  </wpt>
  <wpt lat="52.5479787" lon="13.3547068"><name>Toni Schwarz, Ostender Straße 2, https://www.stolpersteine-berlin.de/biografie/625</name>  </wpt>
  <wpt lat="52.5479787" lon="13.3547068"><name>Emil Schwarz, Ostender Straße 2, https://www.stolpersteine-berlin.de/biografie/626</name>  </wpt>
  <wpt lat="52.54803" lon="13.35436"><name>Leew Schwarz, Ostender Straße 2 a, https://www.stolpersteine-berlin.de/biografie/627</name>  </wpt>
  <wpt lat="52.54803" lon="13.35436"><name>Tana Schwarz, Ostender Straße 2 a, https://www.stolpersteine-berlin.de/biografie/628</name>  </wpt>
  <wpt lat="52.5492394" lon="13.3472312"><name>Ella Trebe, Togostraße 78, https://www.stolpersteine-berlin.de/biografie/692</name>  </wpt>
  <wpt lat="52.55276" lon="13.34731"><name>Richard Tworoger, Müllerstraße 126 a, https://www.stolpersteine-berlin.de/biografie/699</name>  </wpt>
  <wpt lat="52.55276" lon="13.34731"><name>Alfred Tworoger, Müllerstraße 126 a, https://www.stolpersteine-berlin.de/biografie/700</name>  </wpt>
  <wpt lat="52.55091" lon="13.3658"><name>Georg Witt, Schulstraße 107, https://www.stolpersteine-berlin.de/biografie/752</name>  </wpt>
  <wpt lat="52.55091" lon="13.3658"><name>Rosa Witt, Schulstraße 107, https://www.stolpersteine-berlin.de/biografie/753</name>  </wpt>
  <wpt lat="52.545632202577" lon="13.360794146033"><name>Elisabeth Wolff, Müllerstraße 25, https://www.stolpersteine-berlin.de/biografie/764</name>  </wpt>
  <wpt lat="52.545632202577" lon="13.360794146033"><name>Julius Georg Wolff, Müllerstraße 25, https://www.stolpersteine-berlin.de/biografie/765</name>  </wpt>
  <wpt lat="52.5525631" lon="13.3621839"><name>Albert Kayser, Groninger Straße 22, https://www.stolpersteine-berlin.de/biografie/3606</name>  </wpt>
  <wpt lat="52.5431788" lon="13.370102"><name>Walter Mayer, Reinickendorfer Straße 15, https://www.stolpersteine-berlin.de/biografie/5384</name>  </wpt>
  <wpt lat="52.54841" lon="13.35953"><name>Ella Gattel, Nazarethkirchstraße 49, https://www.stolpersteine-berlin.de/biografie/5386</name>  </wpt>
  <wpt lat="52.54188" lon="13.39247"><name>Dwore Ziller, Brunnenstraße 114, https://www.stolpersteine-berlin.de/biografie/6339</name>  </wpt>
  <wpt lat="52.54188" lon="13.39247"><name>Benno Ziller, Brunnenstraße 114, https://www.stolpersteine-berlin.de/biografie/6340</name>  </wpt>
  <wpt lat="52.54188" lon="13.39247"><name>Ephraim Ziller, Brunnenstraße 114, https://www.stolpersteine-berlin.de/biografie/6341</name>  </wpt>
  <wpt lat="52.55058" lon="13.3799"><name>Paul Arenberg, Bastianstraße 11, https://www.stolpersteine-berlin.de/biografie/7109</name>  </wpt>
  <wpt lat="52.54829" lon="13.37279"><name>Kurt Heilbronn, Wiesenstraße 23, https://www.stolpersteine-berlin.de/biografie/7189</name>  </wpt>
  <wpt lat="52.5579723" lon="13.3852065"><name>Max Gattel, Prinzenallee 58, https://www.stolpersteine-berlin.de/biografie/7633</name>  </wpt>
  <wpt lat="52.5579723" lon="13.3852065"><name>Anneliese Gattel, Prinzenallee 58, https://www.stolpersteine-berlin.de/biografie/7634</name>  </wpt>
  <wpt lat="52.5506541" lon="13.3884282"><name>Jakob Marek, Zingster Straße 3, https://www.stolpersteine-berlin.de/biografie/7646</name>  </wpt>
  <wpt lat="52.54367" lon="13.36316"><name>Max Josef Metzger, Müllerstraße 161, https://www.stolpersteine-berlin.de/biografie/7947</name>  </wpt>
  <wpt lat="52.5427" lon="13.35788"><name>Hedwig Müller, Sprengelstraße 6, https://www.stolpersteine-berlin.de/biografie/7958</name>  </wpt>
  <wpt lat="52.56421" lon="13.37891"><name>Fritz Timm, Papierstraße 5, https://www.stolpersteine-berlin.de/biografie/8738</name>  </wpt>
  <wpt lat="52.5504583" lon="13.3602574"><name>Alma Kaphan, Malplaquetstraße 12, https://www.stolpersteine-berlin.de/biografie/9016</name>  </wpt>
  <wpt lat="52.5504583" lon="13.3602574"><name>Simon Kaphan, Malplaquetstraße 12, https://www.stolpersteine-berlin.de/biografie/9017</name>  </wpt>
  <wpt lat="52.54685" lon="13.37567"><name>Robert Mielzynski, Wiesenstraße 15, https://www.stolpersteine-berlin.de/biografie/9065</name>  </wpt>
  <wpt lat="52.5404849" lon="13.4040559"><name>Taube Toni Zenner, Bernauer Straße 76, https://www.stolpersteine-berlin.de/biografie/9075</name>  </wpt>
  <wpt lat="52.55342" lon="13.3714299"><name>Jakob Kaufmann, Schulstraße 58, https://www.stolpersteine-berlin.de/biografie/9504</name>  </wpt>
  <wpt lat="52.55342" lon="13.3714299"><name>Erna Kaufmann, Schulstraße 58, https://www.stolpersteine-berlin.de/biografie/9510</name>  </wpt>
  <wpt lat="52.5419999" lon="13.3989681"><name>Louis Levi Schramm, Swinemünder Straße 36, https://www.stolpersteine-berlin.de/biografie/9584</name>  </wpt>
  <wpt lat="52.5412746" lon="13.3982955"><name>Fritz Kweller, Vinetaplatz 7, https://www.stolpersteine-berlin.de/biografie/9732</name>  </wpt>
  <wpt lat="52.5497336" lon="13.3539385"><name>Erich Reuss, Müllerstraße 38, https://www.stolpersteine-berlin.de/biografie/9741</name>  </wpt>
  <wpt lat="52.5497336" lon="13.3539385"><name>Martha Reuss, Müllerstraße 38, https://www.stolpersteine-berlin.de/biografie/9747</name>  </wpt>
  <wpt lat="52.5497336" lon="13.3539385"><name>Heinrich Reuss, Müllerstraße 38, https://www.stolpersteine-berlin.de/biografie/9748</name>  </wpt>
  <wpt lat="52.5497336" lon="13.3539385"><name>Eva Reuss, Müllerstraße 38, https://www.stolpersteine-berlin.de/biografie/9749</name>  </wpt>
  <wpt lat="52.5555421" lon="13.3846385"><name>Friedrich Jendrosch, Osloer Straße 110, https://www.stolpersteine-berlin.de/biografie/10049</name>  </wpt>
  <wpt lat="52.5515303" lon="13.3797145"><name>Kurt Salomon Elkan, Pankstraße 55, https://www.stolpersteine-berlin.de/biografie/10167</name>  </wpt>
  <wpt lat="52.5591816" lon="13.3385385"><name>Agathe Rosenbach, Londoner Straße 4, https://www.stolpersteine-berlin.de/biografie/10757</name>  </wpt>
  <wpt lat="52.559313044891" lon="13.338519724537"><name>Alfred Pivitz Rosenbach, Londoner Straße 4, https://www.stolpersteine-berlin.de/biografie/10760</name>  </wpt>
  <wpt lat="52.559356859767" lon="13.3385385"><name>Alfred Pumpel Rosenbach, Londoner Straße 4, https://www.stolpersteine-berlin.de/biografie/10762</name>  </wpt>
  <wpt lat="52.559281619412" lon="13.338543864418"><name>Paul Rosenbach, Londoner Straße 4, https://www.stolpersteine-berlin.de/biografie/10764</name>  </wpt>
  <wpt lat="52.559343023495" lon="13.338554593254"><name>Renate Rosenbach, Londoner Straße 4, https://www.stolpersteine-berlin.de/biografie/10765</name>  </wpt>
  <wpt lat="52.559333799311" lon="13.338522406746"><name>Walter Rosenbach, Londoner Straße 4, https://www.stolpersteine-berlin.de/biografie/10767</name>  </wpt>
  <wpt lat="52.559333799311" lon="13.338522406746"><name>Adolf Rosenbach, Londoner Straße 4, https://www.stolpersteine-berlin.de/biografie/10768</name>  </wpt>
  <wpt lat="52.559338411404" lon="13.338527771164"><name>Margarete Rosenbach, Londoner Straße 4, https://www.stolpersteine-berlin.de/biografie/10769</name>  </wpt>
  <wpt lat="52.559329187219" lon="13.3385385"><name>Günther Rosenbach, Londoner Straße 4, https://www.stolpersteine-berlin.de/biografie/10770</name>  </wpt>
  <wpt lat="52.559329187219" lon="13.338517042328"><name>Dieter Rosenbach, Londoner Straße 4, https://www.stolpersteine-berlin.de/biografie/10771</name>  </wpt>
  <wpt lat="52.559333799311" lon="13.33851167791"><name>Murmel Rosenbach, Londoner Straße 4, https://www.stolpersteine-berlin.de/biografie/10772</name>  </wpt>
  <wpt lat="52.558134" lon="13.3894571"><name>Heinz Karl Gerigk, Wriezener Straße 31, https://www.stolpersteine-berlin.de/biografie/10829</name>  </wpt>
  <wpt lat="52.5546035" lon="13.3701787"><name>David Schumacher, Iranische Straße 2, https://www.stolpersteine-berlin.de/biografie/10848</name>  </wpt>
  <wpt lat="52.5546035" lon="13.3701787"><name>Friederike Franziska Schumacher, Iranische Straße 2, https://www.stolpersteine-berlin.de/biografie/10849</name>  </wpt>
  <wpt lat="52.5546035" lon="13.3701787"><name>Ruth Jettka Phillips, Iranische Straße 2, https://www.stolpersteine-berlin.de/biografie/10850</name>  </wpt>
</gpx>